%YAML 1.1
%TAG !u! tag:unity3d.com,2011:
--- !u!1 &8132482086619585
GameObject:
  m_ObjectHideFlags: 0
  m_CorrespondingSourceObject: {fileID: 0}
  m_PrefabInstance: {fileID: 0}
  m_PrefabAsset: {fileID: 0}
  serializedVersion: 6
  m_Component:
  - component: {fileID: 8132482086619588}
  - component: {fileID: 8132482086619587}
  - component: {fileID: 8132482086619586}
  - component: {fileID: 4314898325088537785}
  m_Layer: 0
  m_Name: LevelGenerator
  m_TagString: Untagged
  m_Icon: {fileID: 0}
  m_NavMeshLayer: 0
  m_StaticEditorFlags: 0
  m_IsActive: 1
--- !u!4 &8132482086619588
Transform:
  m_ObjectHideFlags: 0
  m_CorrespondingSourceObject: {fileID: 0}
  m_PrefabInstance: {fileID: 0}
  m_PrefabAsset: {fileID: 0}
  m_GameObject: {fileID: 8132482086619585}
  m_LocalRotation: {x: 0, y: 0, z: 0, w: 1}
  m_LocalPosition: {x: 2.7456753, y: 0.70171094, z: -0.101240024}
  m_LocalScale: {x: 1, y: 1, z: 1}
  m_Children: []
  m_Father: {fileID: 0}
  m_RootOrder: 0
  m_LocalEulerAnglesHint: {x: 0, y: 0, z: 0}
--- !u!114 &8132482086619587
MonoBehaviour:
  m_ObjectHideFlags: 0
  m_CorrespondingSourceObject: {fileID: 0}
  m_PrefabInstance: {fileID: 0}
  m_PrefabAsset: {fileID: 0}
  m_GameObject: {fileID: 8132482086619585}
  m_Enabled: 1
  m_EditorHideFlags: 0
  m_Script: {fileID: 11500000, guid: 7a5ac11cc976e418e8d13136b07e1f52, type: 3}
  m_Name: 
  m_EditorClassIdentifier: 
  m_AgentTypeID: 0
  m_CollectObjects: 0
  m_Size: {x: 10, y: 10, z: 10}
  m_Center: {x: 0, y: 2, z: 0}
  m_LayerMask:
    serializedVersion: 2
    m_Bits: 4294967295
  m_UseGeometry: 0
  m_DefaultArea: 0
  m_IgnoreNavMeshAgent: 1
  m_IgnoreNavMeshObstacle: 1
  m_OverrideTileSize: 0
  m_TileSize: 256
  m_OverrideVoxelSize: 0
  m_VoxelSize: 0.16666667
  m_BuildHeightMesh: 0
  m_NavMeshData: {fileID: 0}
--- !u!114 &8132482086619586
MonoBehaviour:
  m_ObjectHideFlags: 0
  m_CorrespondingSourceObject: {fileID: 0}
  m_PrefabInstance: {fileID: 0}
  m_PrefabAsset: {fileID: 0}
  m_GameObject: {fileID: 8132482086619585}
  m_Enabled: 1
  m_EditorHideFlags: 0
  m_Script: {fileID: 11500000, guid: 94ae9ba073105f847a94ffe8f5e22692, type: 3}
  m_Name: 
  m_EditorClassIdentifier: 
  OnLevelGenerated: {fileID: 11400000, guid: 8d829b408605d5b42b1176f92e819dda, type: 2}
  worldSize: {x: 3, y: 4}
  roomSize: {x: 7, y: 7}
  prefStartRoom: {fileID: 2629649071084725671, guid: 537110ee67ed4da4da3832563eb944e2,
    type: 3}
  roomSet: {fileID: 11400000, guid: e293f3b3435bf0d428cd24f69ef5695a, type: 2}
  rooms: []
--- !u!114 &4314898325088537785
MonoBehaviour:
  m_ObjectHideFlags: 0
  m_CorrespondingSourceObject: {fileID: 0}
  m_PrefabInstance: {fileID: 0}
  m_PrefabAsset: {fileID: 0}
  m_GameObject: {fileID: 8132482086619585}
  m_Enabled: 1
  m_EditorHideFlags: 0
  m_Script: {fileID: 11500000, guid: 4225a5b6b31fa29488622a3f25ec23af, type: 3}
  m_Name: 
  m_EditorClassIdentifier: 
  eventResponders:
  - name: OnNextLevel
    gameEvent: {fileID: 11400000, guid: 8b172766359f195459d7db4e9319167e, type: 2}
    response:
      m_PersistentCalls:
        m_Calls:
        - m_Target: {fileID: 8132482086619586}
          m_TargetAssemblyTypeName: WorldGenerator, Assembly-CSharp
          m_MethodName: NextLevel
          m_Mode: 1
          m_Arguments:
            m_ObjectArgument: {fileID: 0}
            m_ObjectArgumentAssemblyTypeName: UnityEngine.Object, UnityEngine
            m_IntArgument: 0
            m_FloatArgument: 0
            m_StringArgument: 
            m_BoolArgument: 0
          m_CallState: 2
